{
"data" : [
    {
        "link": "https://www.youtube.com/playlist?list=PLFsQleAWXsj_4yDeebiIADdH5FMayBiJo",
        "name": "important videos",
        "date": "March 16, 2019",
        "videos": "311",
        "views": "56899446",
        "embed_link": "https://www.youtube.com/embed/playlist?list=PLFsQleAWXsj_4yDeebiIADdH5FMayBiJo",
        "channel_links": [
            "kierancaspian"
        ],
        "video_links": [
            "Yee"
        ],
        "page": "<a href='playlist1'>Link</a>"
    },
    {
        "link": "https://www.youtube.com/playlist?list=PLFsQleAWXsj9j8JkBmOxmYryltbgzLbVP",
        "name": "Agape Download",
        "date": "March 13, 2019",
        "videos": "16",
        "views": "20",
        "embed_link": "https://www.youtube.com/embed/playlist?list=PLFsQleAWXsj9j8JkBmOxmYryltbgzLbVP",
        "channel_links": [
            "kierancaspian"
        ],
        "video_links": [
            "the eames era listen for the sun"
        ],
        "page": "<a href='playlist2'>Link</a>"
    },
    {
        "link": "https://www.youtube.com/playlist?list=PL1Jm-ebzGuqUzjqC0gOn9SFHBwrf3Mls_",
        "name": "Lounge",
        "date": "March 10, 2019",
        "videos": "7",
        "views": "4",
        "embed_link": "https://www.youtube.com/embed/playlist?list=PL1Jm-ebzGuqUzjqC0gOn9SFHBwrf3Mls_",
        "channel_links": [
            "nicolas guergoff"
        ],
        "video_links": [
            "Unknown Artist - Untitled 02"
        ],
        "page": "<a href='playlist3'>Link</a>"
    },
    {
        "link": "https://www.youtube.com/playlist?list=PLNPXWYvyOve8LuHv_tEDdVev1ezs2c0EK",
        "name": "Peter Goes to Walmart",
        "date": "August 15, 2018",
        "videos": "5",
        "views": "1597",
        "embed_link": "https://www.youtube.com/embed/playlist?list=PLNPXWYvyOve8LuHv_tEDdVev1ezs2c0EK",
        "channel_links": [
            "(none)"
        ],
        "video_links": [
            "Peter Goes to Walmart the Husband shows up and looks .....",
            "Peter gets Coconut Red Bull at Dandy Mart"
        ],
        "page": "<a href='playlist4'>Link</a>"
    },
    {
        "link": "https://www.youtube.com/playlist?list=PLsdGe6Hk6kavr8FWUMXoV7hVUbURBTbwj",
        "name": "Fav",
        "date": "February 9, 2019",
        "videos": "3",
        "views": "18",
        "embed_link": "https://www.youtube.com/embed/playlist?list=PLsdGe6Hk6kavr8FWUMXoV7hVUbURBTbwj",
        "channel_links": [
            "(none)"
        ],
        "video_links": [
            "Chippy goes to Home Depot and Walmart, Peter buys bird seed and sees Bob Seger",
            "10 Underground things that take place during Yugioh tournaments !"
        ],
        "page": "<a href='playlist5'>Link</a>"
    },
    {
        "link": "https://www.youtube.com/playlist?list=PL0XHkAy96suUzqIPG2Us_jOZhdB9Y9_z1",
        "name": "Russian Hitman Pranks!",
        "date": "July 2, 2014",
        "videos": "7",
        "views": "2232837",
        "embed_link": "https://www.youtube.com/embed/playlist?list=PL0XHkAy96suUzqIPG2Us_jOZhdB9Y9_z1",
        "channel_links": [
            "VitalyzdTv"
        ],
        "video_links": [
            "(none)"
        ],
        "page": "<a href='playlist6'>Link</a>"
    },
    {
        "link": "https://www.youtube.com/playlist?list=PL0XHkAy96suVOYZi4HHYSTmjHaMOLPY9Z",
        "name": "Helping The Homeless!",
        "date": "July 2, 2014",
        "videos": "3",
        "views": "595313",
        "embed_link": "https://www.youtube.com/embed/playlist?list=PL0XHkAy96suVOYZi4HHYSTmjHaMOLPY9Z",
        "channel_links": [
            "VitalyzdTv"
        ],
        "video_links": [
            "(none)"
        ],
        "page": "<a href='playlist7'>Link</a>"
    },
    {
        "link": "https://www.youtube.com/playlist?list=PL0XHkAy96suU3u6rx8S-NBEaHBgqsHTck",
        "name": "How To Pick Up Girls!",
        "date": "July 2, 2014",
        "videos": "11",
        "views": "2543378",
        "embed_link": "https://www.youtube.com/embed/playlist?list=PL0XHkAy96suU3u6rx8S-NBEaHBgqsHTck",
        "channel_links": [
            "VitalyzdTv"
        ],
        "video_links": [
            "(none)"
        ],
        "page": "<a href='playlist8'>Link</a>"
    },
    {
        "link": "https://www.youtube.com/playlist?list=PL0XHkAy96suVYni8d_zz0l_XOY4wdqSEZ",
        "name": "Disturbing The Peace!",
        "date": "July 2, 2014",
        "videos": "11",
        "views": "1528919",
        "embed_link": "https://www.youtube.com/embed/playlist?list=PL0XHkAy96suVYni8d_zz0l_XOY4wdqSEZ",
        "channel_links": [
            "VitalyzdTv"
        ],
        "video_links": [
            "(none)"
        ],
        "page": "<a href='playlist9'>Link</a>"
    },
    {
        "link": "https://www.youtube.com/playlist?list=PL9bw4S5ePsEFPB5XRGjGjmTgu7e0Sutxi",
        "name": "Ranveer Singh: Simmba Movie Video & Audio Songs",
        "date": "March 17, 2019",
        "videos": "18",
        "views": "1378492",
        "embed_link": "https://www.youtube.com/embed/playlist?list=PL9bw4S5ePsEFPB5XRGjGjmTgu7e0Sutxi",
        "channel_links": [
            "T-Series"
        ],
        "video_links": [
            "(none)"
        ],
        "page": "<a href='playlist10'>Link</a>"
    },
    {
        "link": "https://www.youtube.com/playlist?list=PL095CA373D64B70C0",
        "name": "Hit Videos",
        "date": "March 28, 2019",
        "videos": "979",
        "views": "37589639",
        "embed_link": "https://www.youtube.com/embed/playlist?list=PL095CA373D64B70C0",
        "channel_links": [
            "T-Series"
        ],
        "video_links": [
            "Tum Hi Ho Rehnuma Shreya G Armaan M | T-SERIES MIXTAPE SEASON 2 | Ep 1 Bhushan K Ahmed K Abhijit V"
        ],
        "page": "<a href='playlist11'>Link</a>"
    },
    {
        "link": "https://www.youtube.com/playlist?list=PLY_6uAtgkYXkTqUi8UUK0hSbGdU4LnrPJ",
        "name": "ANIME!!",
        "date": "March 8, 2019",
        "videos": "11",
        "views": "11640",
        "embed_link": "https://www.youtube.com/embed/playlist?list=PLY_6uAtgkYXkTqUi8UUK0hSbGdU4LnrPJ",
        "channel_links": [
            "DEATH BATTLE!"
        ],
        "video_links": [
            "One Minute Melee - Roronoa Zoro Vs Rurouni Kenshin (One Piece vs Samurai X)",
            "Gaara VS Toph (Naruto VS Avatar) | DEATH BATTLE!"
        ],
        "page": "<a href='playlist12'>Link</a>"
    },
    {
        "link": "https://www.youtube.com/playlist?list=PLTnR43JTLNs9AKoeH-vyEzPmRWSorlbfQ",
        "name": "Disney's Dumbo - In theatres March 29, 2019",
        "date": "March 28, 2019",
        "videos": "11",
        "views": "36317",
        "embed_link": "https://www.youtube.com/embed/playlist?list=PLTnR43JTLNs9AKoeH-vyEzPmRWSorlbfQ",
        "channel_links": [
            "Walt Disney Studios"
        ],
        "video_links": [
            "Dumbo Official Trailer"
        ],
        "page": "<a href='playlist13'>Link</a>"
    },
    {
        "link": "https://www.youtube.com/playlist?list=PLQl8zBB7bPvJEW7pwb1wYawqBdFPLf_TP",
        "name": "ADULT SWIM SMALLS",
        "date": "March 26, 2019",
        "videos": "81",
        "views": "491840",
        "embed_link": "https://www.youtube.com/embed/playlist?list=PLQl8zBB7bPvJEW7pwb1wYawqBdFPLf_TP",
        "channel_links": [
            "Adult Swim"
        ],
        "video_links": [
            "ADULT SWIM SMALLS: VOLUME ONE"
        ],
        "page": "<a href='playlist14'>Link</a>"
    },
    {
        "link": "https://www.youtube.com/playlist?list=PLQRYSO05JdJs9X7ZQaXXu5OtKqL4fmceF",
        "name": "#TheDesiFrenzy",
        "date": "March 19, 2019",
        "videos": "37",
        "views": "263645",
        "embed_link": "https://www.youtube.com/embed/playlist?list=PLQRYSO05JdJs9X7ZQaXXu5OtKqL4fmceF",
        "channel_links": [
            "desifrenzy"
        ],
        "video_links": [
            "Moose Wala Frenzy | DJ FRENZY | Sidhu Moosewala | Latest Punjabi Songs 2019",
            "DESPA-SUIT-O [The Laung Gawacha Mix] | DJ FRENZY | GURU RANDHAWA | NOOR JEHAN"
        ],
        "page": "<a href='playlist15'>Link</a>"
    },
    {
        "link": "https://www.youtube.com/playlist?list=PLCuXgdrMakmqu1Wzp0b1pDtPkVXByOAlo",
        "name": "FOOOOD VIDEOS!!",
        "date": "March 24, 2019",
        "videos": "133",
        "views": "56937",
        "embed_link": "https://www.youtube.com/embed/playlist?list=PLCuXgdrMakmqu1Wzp0b1pDtPkVXByOAlo",
        "channel_links": [
            "LotsOfBunnies"
        ],
        "video_links": [
            "ANGRIEST WHOPPER!?!"
        ],
        "page": "<a href='playlist16'>Link</a>"
    },
    {
        "link": "https://www.youtube.com/playlist?list=PLyphTWxdhQdtmeY5ePyQdL6FZkj0nfURC",
        "name": "SKETCHES",
        "date": "September 12, 2018",
        "videos": "49",
        "views": "364072",
        "embed_link": "https://www.youtube.com/embed/playlist?list=PLyphTWxdhQdtmeY5ePyQdL6FZkj0nfURC",
        "channel_links": [
            "JusReign"
        ],
        "video_links": [
            "The FBI is Watching Us"
        ],
        "page": "<a href='playlist17'>Link</a>"
    },
    {
        "link": "https://www.youtube.com/playlist?list=PLyphTWxdhQdu9nZZHFTPVBaDdLceYyg17",
        "name": "MUSIC",
        "date": "June 13, 2017",
        "videos": "19",
        "views": "289179",
        "embed_link": "https://www.youtube.com/embed/playlist?list=PLyphTWxdhQdu9nZZHFTPVBaDdLceYyg17",
        "channel_links": [
            "JusReign"
        ],
        "video_links": [
            "JUST 2 BOYZ GOING TO COACHELLA"
        ],
        "page": "<a href='playlist18'>Link</a>"
    },
    {
        "link": "https://www.youtube.com/playlist?list=PLlVlyGVtvuVkUpgWlBV44heQGeVpxFvU4",
        "name": "NBA Top Plays of the Night",
        "date": "June 28, 2017",
        "videos": "392",
        "views": "597013",
        "embed_link": "https://www.youtube.com/embed/playlist?list=PLlVlyGVtvuVkUpgWlBV44heQGeVpxFvU4",
        "channel_links": [
            "NBA"
        ],
        "video_links": [
            "NBA Top 10 Plays of the Night | March 27, 2019"
        ],
        "page": "<a href='playlist19'>Link</a>"
    },
    {
        "link": "https://www.youtube.com/playlist?list=PLQwITQ__CeH3rtRyY66afRlCzi65SF6xx",
        "name": "College Admissions Scandal",
        "date": "March 28, 2019",
        "videos": "12",
        "views": "6",
        "embed_link": "https://www.youtube.com/embed/playlist?list=PLQwITQ__CeH3rtRyY66afRlCzi65SF6xx",
        "channel_links": [
            "Entertainment Tonight"
        ],
        "video_links": [
            "Olivia Jade Has Not Dropped Out of USC Amid College Admissions Scandal",
            "Lori Loughlin Interview Resurfaces Amid College Admissions Scandal"
        ],
        "page": "<a href='playlist20'>Link</a>"
    },
    {
        "link": "https://www.youtube.com/playlist?list=PLFGbFkhE8JviCqpeaHJ8JxlWLjMOc1Xjd",
        "name": "Project Butterfly.",
        "date": "December 30, 2018",
        "videos": "36",
        "views": "5285",
        "embed_link": "https://www.youtube.com/embed/playlist?list=PLFGbFkhE8JviCqpeaHJ8JxlWLjMOc1Xjd",
        "channel_links": [
            "fouseyTUBE"
        ],
        "video_links": [
            "GoodBye Forever. My New Home.",
            "24 Hour Overnight Challenge At Jake Paul Team 10 House!"
        ],
        "page": "<a href='playlist21'>Link</a>"
    },
    {
        "link": "https://www.youtube.com/playlist?list=PLbaU5QhhTjtRVV7oov7xTm30CRQKAv7n4",
        "name": "FIFA 18 RTG",
        "date": "March 28, 2019",
        "videos": "514",
        "views": "73288",
        "embed_link": "https://www.youtube.com/embed/playlist?list=PLbaU5QhhTjtRVV7oov7xTm30CRQKAv7n4",
        "channel_links": [
            "AA9skillz"
        ],
        "video_links": [
            "OMG MY TOP 100 REWARDS! *EPIC WALKOUT* FIFA 18 Road To Fut Champions! Ultimate Team #13 RTG"
        ],
        "page": "<a href='playlist22'>Link</a>"
    },
    {
        "link": "https://www.youtube.com/playlist?list=PLVykh8Zqq_tj9O4Adoc4WDHG_973eqjvX",
        "name": "Original Songs",
        "date": "December 16, 2018",
        "videos": "11",
        "views": "5123803",
        "embed_link": "https://www.youtube.com/embed/playlist?list=PLVykh8Zqq_tj9O4Adoc4WDHG_973eqjvX",
        "channel_links": [
            "Joe Weller"
        ],
        "video_links": [
            "Wanna Do - Joe Weller ft. Emil (Official Video)"
        ],
        "page": "<a href='playlist23'>Link</a>"
    },
    {
        "link": "https://www.youtube.com/playlist?list=PLIGVTI9PUhD9mL1YDda8vzsBfFVUmd931",
        "name": "Original Music Videos",
        "date": "March 14, 2019",
        "videos": "10",
        "views": "2320",
        "embed_link": "https://www.youtube.com/embed/playlist?list=PLIGVTI9PUhD9mL1YDda8vzsBfFVUmd931",
        "channel_links": [
            "DJ Twinbeatz"
        ],
        "video_links": [
            "Twinbeatz - Speechless ft. Talwiinder & Push Kahlon (Official Video)",
            "Twinbeatz - Trophy ft. Amanjot Sangha (Official Video)"
        ],
        "page": "<a href='playlist24'>Link</a>"
    },
    {
        "link": "https://www.youtube.com/playlist?list=PLIGVTI9PUhD8j3MLe8iCf58iGRvkkOI-0",
        "name": "Twinbeatz Live Shows",
        "date": "November 2, 2018",
        "videos": "6",
        "views": "2105",
        "embed_link": "https://www.youtube.com/embed/playlist?list=PLIGVTI9PUhD8j3MLe8iCf58iGRvkkOI-0",
        "channel_links": [
            "DJ Twinbeatz"
        ],
        "video_links": [
            "Twinbeatz \"Dream BIG\" at Sacramento | Team JSP & Kanda Productions | 9.25.2017",
            "Twinbeatz \"Dream BIG\" Tour at Toronto | Halloween 2017"
        ],
        "page": "<a href='playlist25'>Link</a>"
    },
    {
        "link": "https://www.youtube.com/playlist?list=PLHLhcULPCm0xD_yu_VvydfpbuaB5lieSy",
        "name": "Castlevania: Symphony of the Night",
        "date": "Oct 19, 2018",
        "videos": "18",
        "views": "76270",
        "embed_link": "https://www.youtube.com/embed/playlist?list=PLHLhcULPCm0xD_yu_VvydfpbuaB5lieSy",
        "channel_links": [
            "The Super Gaming Bros."
        ],
        "video_links": [
            "SGB Play: Castlevania: Symphony of the Night - Part 1 | But Where's the Symphony?"
        ],
        "page": "<a href='playlist26'>Link</a>"
    },
    {
        "link": "https://www.youtube.com/playlist?list=PLo3hNPeEYeTDl9HLShsvb_y2eLzmnjVmI",
        "name": "JASON DERULO Choreography | Matt Steffanina",
        "date": "July 11, 2018",
        "videos": "23",
        "views": "198089",
        "embed_link": "https://www.youtube.com/embed/playlist?list=PLo3hNPeEYeTDl9HLShsvb_y2eLzmnjVmI",
        "channel_links": [
            "Matt Steffanina"
        ],
        "video_links": [
            "JASON DERULO - \"TIP TOE\" Surprise Dance w/ Matt Steffanina ft Dytto, Aliya Janell & more"
        ],
        "page": "<a href='playlist27'>Link</a>"
    },
    {
        "link": "https://www.youtube.com/playlist?list=PLo3hNPeEYeTAJXleeUp4FEW_Vv8Q8wvoT",
        "name": "NICKI MINAJ Choreography | Matt Steffanina",
        "date": "December 24, 2018",
        "videos": "26",
        "views": "91477",
        "embed_link": "https://www.youtube.com/embed/playlist?list=PLo3hNPeEYeTAJXleeUp4FEW_Vv8Q8wvoT",
        "channel_links": [
            "Matt Steffanina"
        ],
        "video_links": [
            "\"MAMA\" - 6ix9nine ft Nicki Minaj & Kanye Dance | Matt Steffanina ft Josh Killacky",
            "Nicki Minaj - \"BARBIE DREAMS\" Dance | Matt Steffanina ft Kaycee, Bailey & Charlize"
        ],
        "page": "<a href='playlist28'>Link</a>"
    },
    {
        "link": "https://www.youtube.com/playlist?list=PLo3hNPeEYeTCtHyieOZnAofAXSJyMV763",
        "name": "CHRIS BROWN Choreography | Matt Steffanina",
        "date": "Feb 18, 2019",
        "videos": "30",
        "views": "278098",
        "embed_link": "https://www.youtube.com/embed/playlist?list=PLo3hNPeEYeTCtHyieOZnAofAXSJyMV763",
        "channel_links": [
            "Matt Steffanina"
        ],
        "video_links": [
            "CHI CHI - Trey Songz & Chris Brown Dance | Matt Steffanina & Josh Beauchamp Choreography",
            "Chris Brown - \"UNDECIDED\" Dance | Matt Steffanina ft Bailey Sok"
        ],
        "page": "<a href='playlist29'>Link</a>"
    },
    {
        "link": "https://www.youtube.com/playlist?list=PL1pKY9hD6_eNxaq51TWHdn_KsWmNgluGG",
        "name": "Twitch: Final Fantasy VI - Brave New World",
        "date": "Aug 24, 2018",
        "videos": "10",
        "views": "19566",
        "embed_link": "https://www.youtube.com/embed/playlist?list=PL1pKY9hD6_eNxaq51TWHdn_KsWmNgluGG",
        "channel_links": [
            "SomecallmeJohnny"
        ],
        "video_links": [
            "Twitch: Final Fantasy VI: Brave New World | Session #01",
            "Twitch: Final Fantasy VI: Brave New World | Session #05"
        ],
        "page": "<a href='playlist30'>Link</a>"
    },
    {
        "link": "https://www.youtube.com/playlist?list=PLbStZCdlNLK80fAnL1l2Sl6j-A-oVqkf1",
        "name": "CHALLENGES",
        "date": "March 22, 2019",
        "videos": "11",
        "views": "490",
        "embed_link": "https://www.youtube.com/embed/playlist?list=PLbStZCdlNLK80fAnL1l2Sl6j-A-oVqkf1",
        "channel_links": [
            "Photo Fam"
        ],
        "video_links": [
            "Pie Face Game with Grandma",
            "Speaking Only Russian for 24 hours"
        ],
        "page": "<a href='playlist31'>Link</a>"
    },
    {
        "link": "https://www.youtube.com/playlist?list=PLbStZCdlNLK9mZftXDsS-PYrIzE5vMtzw",
        "name": "VLOGS",
        "date": "Mar 30, 2019",
        "videos": "25",
        "views": "1253",
        "embed_link": "https://www.youtube.com/embed/playlist?list=PLbStZCdlNLK9mZftXDsS-PYrIzE5vMtzw",
        "channel_links": [
            "Photo Fam"
        ],
        "video_links": [
            "Baby Drives Lambo on Sunset Blvd - (Santa Visits!)"
        ],
        "page": "<a href='playlist32'>Link</a>"
    },
    {
        "link": "https://www.youtube.com/playlist?list=PLOr9xVPzuS2ST_WR9IIqr1wNXgNt7JgPD",
        "name": "Trips",
        "date": "Jul 3, 2017",
        "videos": "6",
        "views": "19",
        "embed_link": "https://www.youtube.com/embed/playlist?list=PLOr9xVPzuS2ST_WR9IIqr1wNXgNt7JgPD",
        "channel_links": [
            "Our Nerd Farm"
        ],
        "video_links": [
            "(none)"
        ],
        "page": "<a href='playlist33'>Link</a>"
    },
    {
        "link": "https://www.youtube.com/playlist?list=PLOr9xVPzuS2Qe10tI352--25Oz9RI84On",
        "name": "Home Projects",
        "date": "Mar 26, 2019",
        "videos": "10",
        "views": "13",
        "embed_link": "https://www.youtube.com/embed/playlist?list=PLOr9xVPzuS2Qe10tI352--25Oz9RI84On",
        "channel_links": [
            "Our Nerd Farm"
        ],
        "video_links": [
            "(none)"
        ],
        "page": "<a href='playlist34'>Link</a>"
    },
    {
        "link": "https://www.youtube.com/playlist?list=PLOr9xVPzuS2SqVqFPsrI6OkU6BDf0dR4H",
        "name": "Car Stuff",
        "date": "Mar 27, 2019",
        "videos": "12",
        "views": "35",
        "embed_link": "https://www.youtube.com/embed/playlist?list=PLOr9xVPzuS2SqVqFPsrI6OkU6BDf0dR4H",
        "channel_links": [
            "Our Nerd Farm"
        ],
        "video_links": [
            "(none)"
        ],
        "page": "<a href='playlist35'>Link</a>"
    },
    {
        "link": "https://www.youtube.com/playlist?list=PLCuXgdrMakmp-6SmPEqzvSFNdomi7Hneh",
        "name": "ACTIVEWEAR & CLOTHING TRY ONS!",
        "date": "Mar 5, 2019",
        "videos": "32",
        "views": "099",
        "embed_link": "https://www.youtube.com/embed/playlist?list=PLCuXgdrMakmp-6SmPEqzvSFNdomi7Hneh",
        "channel_links": [
            "LotsOfBunnies"
        ],
        "video_links": [
            "(none)"
        ],
        "page": "<a href='playlist36'>Link</a>"
    },
    {
        "link": "https://www.youtube.com/playlist?list=PLCuXgdrMakmrYv8Wii9cdeHtAjVWx2Bqc",
        "name": "CHALLENGES!!",
        "date": "Jan 13, 2019",
        "videos": "22",
        "views": "13818",
        "embed_link": "https://www.youtube.com/embed/playlist?list=PLCuXgdrMakmrYv8Wii9cdeHtAjVWx2Bqc",
        "channel_links": [
            "LotsOfBunnies"
        ],
        "video_links": [
            "(none)"
        ],
        "page": "<a href='playlist37'>Link</a>"
    },
    {
        "link": "https://www.youtube.com/playlist?list=PLCuXgdrMakmrrYHDAe5aV8JffRGAqXasH",
        "name": "Q&A",
        "date": "Aug 4, 2017",
        "videos": "18",
        "views": "6349",
        "embed_link": "https://www.youtube.com/embed/playlist?list=PLCuXgdrMakmrrYHDAe5aV8JffRGAqXasH",
        "channel_links": [
            "LotsOfBunnies"
        ],
        "video_links": [
            "(none)"
        ],
        "page": "<a href='playlist38'>Link</a>"
    },
    {
        "link": "https://www.youtube.com/playlist?list=PLuBXqtS2jaLOHcYCLGaRkFDynyeAWUEuh",
        "name": "12 Collabs of Christmas | IISuperwomanII",
        "date": "Dec 23, 2018",
        "videos": "42",
        "views": "2909632",
        "embed_link": "https://www.youtube.com/embed/playlist?list=PLuBXqtS2jaLOHcYCLGaRkFDynyeAWUEuh",
        "channel_links": [
            "IISuperwomanII"
        ],
        "video_links": [
            "(none)"
        ],
        "page": "<a href='playlist39'>Link</a>"
    },
    {
        "link": "https://www.youtube.com/playlist?list=PLuBXqtS2jaLMu81JnF6AOnRHzG6Csbd6y",
        "name": "TYPES OF PEOPLE | IISuperwomanII",
        "date": "Sep 17, 2018",
        "videos": "53",
        "views": "7887157",
        "embed_link": "https://www.youtube.com/embed/playlist?list=PLuBXqtS2jaLMu81JnF6AOnRHzG6Csbd6y",
        "channel_links": [
            "IISuperwomanII"
        ],
        "video_links": [
            "(none)"
        ],
        "page": "<a href='playlist40'>Link</a>"
    },
    {
        "link": "https://www.youtube.com/playlist?list=PLuBXqtS2jaLOGQynSYvxaqUgvNl7Ovz8x",
        "name": "THE PARENTS LOLS | IISuperwomanII",
        "date": "Jul 19, 2018",
        "videos": "62",
        "views": "10335285",
        "embed_link": "https://www.youtube.com/embed/playlist?list=PLuBXqtS2jaLOGQynSYvxaqUgvNl7Ovz8x",
        "channel_links": [
            "IISuperwomanII"
        ],
        "video_links": [
            "(none)"
        ],
        "page": "<a href='playlist41'>Link</a>"
    },
    {
        "link": "https://www.youtube.com/playlist?list=PLuBXqtS2jaLM1jfI5SeX3JxcSFgRZv2Cb",
        "name": "#GirlLove | IISuperwomanII",
        "date": "May 23, 2018",
        "videos": "12",
        "views": "227475",
        "embed_link": "https://www.youtube.com/embed/playlist?list=PLuBXqtS2jaLM1jfI5SeX3JxcSFgRZv2Cb",
        "channel_links": [
            "IISuperwomanII"
        ],
        "video_links": [
            "(none)"
        ],
        "page": "<a href='playlist42'>Link</a>"
    },
    {
        "link": "https://www.youtube.com/playlist?list=PLuBXqtS2jaLOBA7y-rE-YK3batMtsMw3C",
        "name": "MY PARENTS REACT| IISuperwomanII",
        "date": "Jul 19, 2018",
        "videos": "29",
        "views": "7119194",
        "embed_link": "https://www.youtube.com/embed/playlist?list=PLuBXqtS2jaLOBA7y-rE-YK3batMtsMw3C",
        "channel_links": [
            "IISuperwomanII"
        ],
        "video_links": [
            "(none)"
        ],
        "page": "<a href='playlist43'>Link</a>"
    },
    {
        "link": "https://www.youtube.com/playlist?list=PLVFJ9l_oGMMox9WwpgKTw9mIbZPEAN8vo",
        "name": "COOKING HIGH CALORIE MEALS | Kali Muscle",
        "date": "Jul 27, 2018",
        "videos": "17",
        "views": "31636",
        "embed_link": "https://www.youtube.com/embed/playlist?list=PLVFJ9l_oGMMox9WwpgKTw9mIbZPEAN8vo",
        "channel_links": [
            "Kali Muscle"
        ],
        "video_links": [
            "(none)"
        ],
        "page": "<a href='playlist44'>Link</a>"
    },
    {
        "link": "https://www.youtube.com/playlist?list=PLVFJ9l_oGMMpaqFo59G7n5ldY2K-1UdYD",
        "name": "ICEP WORKOUTS | Kali Muscle",
        "date": "Jul 27, 2018",
        "videos": "36",
        "views": "8396",
        "embed_link": "https://www.youtube.com/embed/playlist?list=PLVFJ9l_oGMMpaqFo59G7n5ldY2K-1UdYD",
        "channel_links": [
            "Kali Muscle"
        ],
        "video_links": [
            "(none)"
        ],
        "page": "<a href='playlist45'>Link</a>"
    },
    {
        "link": "https://www.youtube.com/playlist?list=PLVFJ9l_oGMMpTc2u4eOTcHshNo4nO7qKy",
        "name": "AB WORKOUTS | Kali Muscle",
        "date": "Jul 27, 2018",
        "videos": "7",
        "views": "3175",
        "embed_link": "https://www.youtube.com/embed/playlist?list=PLVFJ9l_oGMMpTc2u4eOTcHshNo4nO7qKy",
        "channel_links": [
            "Kali Muscle"
        ],
        "video_links": [
            "(none)"
        ],
        "page": "<a href='playlist46'>Link</a>"
    },
    {
        "link": "https://www.youtube.com/playlist?list=OLAK5uy_mWrVjQ9Jx-BfeDvFyXkovTDAgg7w2C5Lo",
        "name": "Just Let Go",
        "date": "Feb 16, 2019",
        "videos": "1",
        "views": "369364",
        "embed_link": "https://www.youtube.com/embed/playlist?list=OLAK5uy_mWrVjQ9Jx-BfeDvFyXkovTDAgg7w2C5Lo",
        "channel_links": [
            "ChrisBrownTV"
        ],
        "video_links": [
            "(none)"
        ],
        "page": "<a href='playlist47'>Link</a>"
    },
    {
        "link": "https://www.youtube.com/playlist?list=OLAK5uy_mJ2EzzBsPYFQ2HbYAVyrNWGjetIa9KwbM",
        "name": "Heartbreak on a Full Moon",
        "date": "Feb 15, 2019",
        "videos": "45",
        "views": "6456171",
        "embed_link": "https://www.youtube.com/embed/playlist?list=OLAK5uy_mJ2EzzBsPYFQ2HbYAVyrNWGjetIa9KwbM",
        "channel_links": [
            "ChrisBrownTV"
        ],
        "video_links": [
            "(none)"
        ],
        "page": "<a href='playlist48'>Link</a>"
    },
    {
        "link": "https://www.youtube.com/playlist?list=PLa7wbnOAKfTKxvuULP-u-8u8a5qWYnjZw",
        "name": "BOLLY FUNK",
        "date": "Feb 14, 2019",
        "videos": "8",
        "views": "14317",
        "embed_link": "https://www.youtube.com/embed/playlist?list=PLa7wbnOAKfTKxvuULP-u-8u8a5qWYnjZw",
        "channel_links": [
            "BFunkDance"
        ],
        "video_links": [
            "(none)"
        ],
        "page": "<a href='playlist49'>Link</a>"
    },
    {
        "link": "https://www.youtube.com/playlist?list=PLa7wbnOAKfTKudGoMUbQ-_jxnrc0MLVur",
        "name": "DanceOn",
        "date": "Feb 20, 2018",
        "videos": "2",
        "views": "7514",
        "embed_link": "https://www.youtube.com/embed/playlist?list=PLa7wbnOAKfTKudGoMUbQ-_jxnrc0MLVur",
        "channel_links": [
            "BFunkDance"
        ],
        "video_links": [
            "(none)"
        ],
        "page": "<a href='playlist50'>Link</a>"
    },
    {
        "link": "https://www.youtube.com/playlist?list=PLa7wbnOAKfTK1LCUQkNBZiWzrFXsaLVZn",
        "name": "BHANGRA FUNK",
        "date": "Mar 7, 2019",
        "videos": "20",
        "views": "60695",
        "embed_link": "https://www.youtube.com/embed/playlist?list=PLa7wbnOAKfTK1LCUQkNBZiWzrFXsaLVZn",
        "channel_links": [
            "BFunkDance"
        ],
        "video_links": [
            "(none)"
        ],
        "page": "<a href='playlist51'>Link</a>"
    },
    {
        "link": "https://www.youtube.com/playlist?list=PLdnEwrrwPEv9h1Zn60jKQUuBa3MU0c5py",
        "name": "Fragrance Reviews",
        "date": "Mar 25, 2019",
        "videos": "118",
        "views": "1154",
        "embed_link": "https://www.youtube.com/embed/playlist?list=PLdnEwrrwPEv9h1Zn60jKQUuBa3MU0c5py",
        "channel_links": [
            "Chaos Fragrances"
        ],
        "video_links": [
            "(none)"
        ],
        "page": "<a href='playlist52'>Link</a>"
    },
    {
        "link": "https://www.youtube.com/playlist?list=PLdnEwrrwPEv_sUVF5HONyUaWyw7B0d42l",
        "name": "Fragrant Facts",
        "date": "Oct 10, 2018",
        "videos": "19",
        "views": "689",
        "embed_link": "https://www.youtube.com/embed/playlist?list=PLdnEwrrwPEv_sUVF5HONyUaWyw7B0d42l",
        "channel_links": [
            "Chaos Fragrances"
        ],
        "video_links": [
            "(none)"
        ],
        "page": "<a href='playlist53'>Link</a>"
    }
]
}